{
  "data": {
    "search": [
      {
        "id": "coffee",
        "label": "Coffee",
        "membership": {
          "free": ["solid"]
        }
      },
      {
        "id": "coffee-togo",
        "label": "To-Go Coffee",
        "membership": {
          "free": []
        }
      },
      {
        "id": "coffee-pot",
        "label": "Coffee Pot",
        "membership": {
          "free": []
        }
      },
      {
        "id": "mug",
        "label": "Mug",
        "membership": {
          "free": []
        }
      },
      {
        "id": "mug-marshmallows",
        "label": "Mug with Marshmallows",
        "membership": {
          "free": []
        }
      },
      {
        "id": "mug-hot",
        "label": "Mug Hot",
        "membership": {
          "free": ["solid"]
        }
      }
    ]
  }
}
